project/m2/sim/compute_core_run.log
VCD info: dumpfile sim/tb_compute_core.vcd opened for output.
============================================================
 tb_compute_core : N=4, D=4
 REL_TOL = 0.000976562    ABS_TOL = 1e-06
============================================================

--- Per-cell results ---
  C[0][0]: hw=bf05faec (-0.52336)  ref=bf05faec (-0.52336)  err=0  thresh=0.000511094  PASS
  C[0][1]: hw=3e6f6b04 (0.233807)  ref=3e6f6b04 (0.233807)  err=0  thresh=0.000228327  PASS
  C[0][2]: hw=3e111e68 (0.141718)  ref=3e111e68 (0.141718)  err=0  thresh=0.000138396  PASS
  C[0][3]: hw=3e1cf240 (0.153268)  ref=3e1cf240 (0.153268)  err=0  thresh=0.000149676  PASS
  C[1][0]: hw=bf07ddd8 (-0.530729)  ref=bf07ddd8 (-0.530729)  err=0  thresh=0.00051829  PASS
  C[1][1]: hw=3eb76d5a (0.358256)  ref=3eb76d5a (0.358256)  err=0  thresh=0.00034986  PASS
  C[1][2]: hw=3a833c00 (0.00100124)  ref=3a833c00 (0.00100124)  err=0  thresh=1e-06  PASS
  C[1][3]: hw=3ed20796 (0.410214)  ref=3ed20796 (0.410214)  err=0  thresh=0.0004006  PASS
  C[2][0]: hw=3eba30b6 (0.363653)  ref=3eba30b6 (0.363653)  err=0  thresh=0.00035513  PASS
  C[2][1]: hw=be03f696 (-0.12887)  ref=be03f696 (-0.12887)  err=0  thresh=0.00012585  PASS
  C[2][2]: hw=3e171a4a (0.147561)  ref=3e171a4a (0.147561)  err=0  thresh=0.000144103  PASS
  C[2][3]: hw=be886c70 (-0.266452)  ref=be886c70 (-0.266452)  err=0  thresh=0.000260207  PASS
  C[3][0]: hw=bf23fc19 (-0.640565)  ref=bf23fc19 (-0.640565)  err=0  thresh=0.000625552  PASS
  C[3][1]: hw=bec3ab96 (-0.382168)  ref=bec3ab96 (-0.382168)  err=0  thresh=0.000373211  PASS
  C[3][2]: hw=bee1d29c (-0.44106)  ref=bee1d29c (-0.44106)  err=0  thresh=0.000430723  PASS
  C[3][3]: hw=3ec72557 (0.388957)  ref=3ec72557 (0.388957)  err=0  thresh=0.000379841  PASS

--- Summary ---
  PASS cells : 16 / 16
  FAIL cells : 0 / 16
  Streaming cycles : 10
TEST PASSED
============================================================
tb/tb_compute_core.sv:220: $finish called at 136000 (1ps)
